dashboard.utf8
…
  About

  dashboard

Column

Chart A

Column

Chart B

Chart C

## # A tibble: 21 x 3
## # Groups:   order_dow [7]
##    order_dow aisle                      count
##    <fct>     <chr>                      <int>
##  1 Sunday    fresh vegetables             160
##  2 Sunday    fresh fruits                 151
##  3 Sunday    packaged vegetables fruits    68
##  4 Monday    fresh vegetables              82
##  5 Monday    fresh fruits                  74
##  6 Monday    packaged vegetables fruits    53
##  7 Tuesday   fresh fruits                  70
##  8 Tuesday   fresh vegetables              70
##  9 Tuesday   packaged vegetables fruits    33
## 10 Wednesday fresh fruits                  60
## # … with 11 more rows
